<?xml version="1.0" encoding="UTF-8" standalone="no"?>
<!DOCTYPE svg PUBLIC "-//W3C//DTD SVG 1.0//EN" "http://www.w3.org/TR/2001/PR-SVG-20010719/DTD/svg10.dtd">
<svg width="37cm" height="35cm" viewBox="418 67 740 696" xmlns="http://www.w3.org/2000/svg" xmlns:xlink="http://www.w3.org/1999/xlink">
  <g>
    <rect style="fill: #ffffff" x="652.976" y="270.072" width="228.05" height="44"/>
    <rect style="fill: none; fill-opacity:0; stroke-width: 2; stroke: #000000" x="652.976" y="270.072" width="228.05" height="44"/>
    <text font-size="12.8" style="fill: #000000;text-anchor:middle;font-family:monospace;font-style:normal;font-weight:normal" x="767.001" y="286.072">&lt;&lt;Function-like Macro&gt;&gt;</text>
    <text font-size="16" style="fill: #000000;text-anchor:middle;font-family:sans-serif;font-style:normal;font-weight:700" x="767.001" y="305.072">__iif</text>
    <rect style="fill: #ffffff" x="652.976" y="314.072" width="228.05" height="20"/>
    <rect style="fill: none; fill-opacity:0; stroke-width: 2; stroke: #000000" x="652.976" y="314.072" width="228.05" height="20"/>
    <text font-size="12.8" style="fill: #000000;text-anchor:start;font-family:monospace;font-style:normal;font-weight:normal" x="655.976" y="328.072"> X = 1 or 0</text>
    <rect style="fill: #ffffff" x="652.976" y="334.072" width="228.05" height="45"/>
    <rect style="fill: none; fill-opacity:0; stroke-width: 2; stroke: #000000" x="652.976" y="334.072" width="228.05" height="45"/>
    <text font-size="12.8" style="fill: #000000;text-anchor:start;font-family:monospace;font-style:normal;font-weight:normal" x="655.976" y="348.072"> (): CONCAT(__iif_,X)</text>
    <text font-size="8" style="fill: #000000;text-anchor:start;font-family:sans-serif;font-style:italic;font-weight:normal" x="655.976" y="359.572">Will run the returned macro of __iif_1 or __iif_0 if given</text>
    <text font-size="8" style="fill: #000000;text-anchor:start;font-family:sans-serif;font-style:italic;font-weight:normal" x="655.976" y="369.572">a 1 or a 0, else nothing will happen.</text>
  </g>
  <g>
    <rect style="fill: #ffffff" x="473.2" y="68.4" width="228.6" height="44"/>
    <rect style="fill: none; fill-opacity:0; stroke-width: 2; stroke: #000000" x="473.2" y="68.4" width="228.6" height="44"/>
    <text font-size="12.8" style="fill: #000000;text-anchor:middle;font-family:monospace;font-style:normal;font-weight:normal" x="587.5" y="84.4">&lt;&lt;Function-like Macro&gt;&gt;</text>
    <text font-size="16" style="fill: #000000;text-anchor:middle;font-family:sans-serif;font-style:normal;font-weight:700" x="587.5" y="103.4">__iif_1</text>
    <rect style="fill: #ffffff" x="473.2" y="112.4" width="228.6" height="36"/>
    <rect style="fill: none; fill-opacity:0; stroke-width: 2; stroke: #000000" x="473.2" y="112.4" width="228.6" height="36"/>
    <text font-size="12.8" style="fill: #000000;text-anchor:start;font-family:monospace;font-style:normal;font-weight:normal" x="476.2" y="126.4"> trueValue</text>
    <text font-size="12.8" style="fill: #000000;text-anchor:start;font-family:monospace;font-style:normal;font-weight:normal" x="476.2" y="142.4"> falseValue</text>
    <line style="fill: none; fill-opacity:0; stroke-width: 1; stroke: #000000" x1="483.9" y1="148" x2="560.9" y2="148"/>
    <rect style="fill: #ffffff" x="473.2" y="148.4" width="228.6" height="55"/>
    <rect style="fill: none; fill-opacity:0; stroke-width: 2; stroke: #000000" x="473.2" y="148.4" width="228.6" height="55"/>
    <text font-size="12.8" style="fill: #000000;text-anchor:start;font-family:monospace;font-style:normal;font-weight:normal" x="476.2" y="162.4"> (): trueValue</text>
    <text font-size="8" style="fill: #000000;text-anchor:start;font-family:sans-serif;font-style:italic;font-weight:normal" x="476.2" y="173.9">Will return whatever is passed as the true value. To be</text>
    <text font-size="8" style="fill: #000000;text-anchor:start;font-family:sans-serif;font-style:italic;font-weight:normal" x="476.2" y="183.9">used in combination with __iif and __iif_0 for</text>
    <text font-size="8" style="fill: #000000;text-anchor:start;font-family:sans-serif;font-style:italic;font-weight:normal" x="476.2" y="193.9">proto-logical-branching.</text>
  </g>
  <g>
    <rect style="fill: #ffffff" x="832.2" y="68.4" width="231.15" height="44"/>
    <rect style="fill: none; fill-opacity:0; stroke-width: 2; stroke: #000000" x="832.2" y="68.4" width="231.15" height="44"/>
    <text font-size="12.8" style="fill: #000000;text-anchor:middle;font-family:monospace;font-style:normal;font-weight:normal" x="947.775" y="84.4">&lt;&lt;Function-like Macro&gt;&gt;</text>
    <text font-size="16" style="fill: #000000;text-anchor:middle;font-family:sans-serif;font-style:normal;font-weight:700" x="947.775" y="103.4">__iif_0</text>
    <rect style="fill: #ffffff" x="832.2" y="112.4" width="231.15" height="36"/>
    <rect style="fill: none; fill-opacity:0; stroke-width: 2; stroke: #000000" x="832.2" y="112.4" width="231.15" height="36"/>
    <text font-size="12.8" style="fill: #000000;text-anchor:start;font-family:monospace;font-style:normal;font-weight:normal" x="835.2" y="126.4"> trueValue</text>
    <text font-size="12.8" style="fill: #000000;text-anchor:start;font-family:monospace;font-style:normal;font-weight:normal" x="835.2" y="142.4"> falseValue</text>
    <rect style="fill: #ffffff" x="832.2" y="148.4" width="231.15" height="55"/>
    <rect style="fill: none; fill-opacity:0; stroke-width: 2; stroke: #000000" x="832.2" y="148.4" width="231.15" height="55"/>
    <text font-size="12.8" style="fill: #000000;text-anchor:start;font-family:monospace;font-style:normal;font-weight:normal" x="835.2" y="162.4"> (): falseValue</text>
    <text font-size="8" style="fill: #000000;text-anchor:start;font-family:sans-serif;font-style:italic;font-weight:normal" x="835.2" y="173.9">Will return whatever is passed as the false value. To be</text>
    <text font-size="8" style="fill: #000000;text-anchor:start;font-family:sans-serif;font-style:italic;font-weight:normal" x="835.2" y="183.9">used in combination with __iif and __iif_1 for</text>
    <text font-size="8" style="fill: #000000;text-anchor:start;font-family:sans-serif;font-style:italic;font-weight:normal" x="835.2" y="193.9">proto-logical-branching.</text>
  </g>
  <g>
    <path style="fill: none; fill-opacity:0; stroke-width: 2; stroke: #000000" d="M 767 270.072 C 767.06,204.032 586.028,272.766 587.351,210.398"/>
    <polygon style="fill: #000000" points="590.351,210.462 587.479,204.4 584.352,210.335 "/>
    <polygon style="fill: none; fill-opacity:0; stroke-width: 2; stroke: #000000" points="590.351,210.462 587.479,204.4 584.352,210.335 "/>
  </g>
  <g>
    <path style="fill: none; fill-opacity:0; stroke-width: 2; stroke: #000000" d="M 767 270.072 C 767.06,204.032 946.302,272.766 947.627,210.398"/>
    <polygon style="fill: #000000" points="950.627,210.462 947.755,204.4 944.628,210.335 "/>
    <polygon style="fill: none; fill-opacity:0; stroke-width: 2; stroke: #000000" points="950.627,210.462 947.755,204.4 944.628,210.335 "/>
  </g>
  <g>
    <rect style="fill: #ffffff" x="674.184" y="471.352" width="187.1" height="44"/>
    <rect style="fill: none; fill-opacity:0; stroke-width: 2; stroke: #000000" x="674.184" y="471.352" width="187.1" height="44"/>
    <text font-size="12.8" style="fill: #000000;text-anchor:middle;font-family:monospace;font-style:normal;font-weight:normal" x="767.734" y="487.352">&lt;&lt;Function-like Macro&gt;&gt;</text>
    <text font-size="16" style="fill: #000000;text-anchor:middle;font-family:sans-serif;font-style:normal;font-weight:700" x="767.734" y="506.352">CONCAT</text>
    <rect style="fill: #ffffff" x="674.184" y="515.352" width="187.1" height="36"/>
    <rect style="fill: none; fill-opacity:0; stroke-width: 2; stroke: #000000" x="674.184" y="515.352" width="187.1" height="36"/>
    <text font-size="12.8" style="fill: #000000;text-anchor:start;font-family:monospace;font-style:normal;font-weight:normal" x="677.184" y="529.352"> X</text>
    <text font-size="12.8" style="fill: #000000;text-anchor:start;font-family:monospace;font-style:normal;font-weight:normal" x="677.184" y="545.352"> ... = Variadic</text>
    <rect style="fill: #ffffff" x="674.184" y="551.352" width="187.1" height="20"/>
    <rect style="fill: none; fill-opacity:0; stroke-width: 2; stroke: #000000" x="674.184" y="551.352" width="187.1" height="20"/>
    <text font-size="12.8" style="fill: #000000;text-anchor:start;font-family:monospace;font-style:normal;font-weight:normal" x="677.184" y="565.352"> (): X__VA_ARGS__</text>
  </g>
  <g>
    <polygon style="fill: #ffffff" points="473.665,554.828 510.288,554.828 495.73,594.828 459.106,594.828 "/>
    <polygon style="fill: none; fill-opacity:0; stroke-width: 2; stroke: #000000" points="473.665,554.828 510.288,554.828 495.73,594.828 459.106,594.828 "/>
    <text font-size="12.8" style="fill: #000000;text-anchor:middle;font-family:sans-serif;font-style:normal;font-weight:normal" x="484.697" y="578.728">
      <tspan x="484.697" y="578.728">X</tspan>
    </text>
  </g>
  <g>
    <rect style="fill: #ffffff" x="456.864" y="471.352" width="67.8889" height="40"/>
    <rect style="fill: none; fill-opacity:0; stroke-width: 2; stroke: #000000" x="456.864" y="471.352" width="67.8889" height="40"/>
    <line style="fill: none; fill-opacity:0; stroke-width: 2; stroke: #000000" x1="463.653" y1="471.352" x2="463.653" y2="511.352"/>
    <line style="fill: none; fill-opacity:0; stroke-width: 2; stroke: #000000" x1="456.864" y1="475.352" x2="524.753" y2="475.352"/>
    <text font-size="12.8" style="fill: #000000;text-anchor:middle;font-family:sans-serif;font-style:normal;font-weight:normal" x="494.203" y="497.352">
      <tspan x="494.203" y="497.352">"__iif_"</tspan>
    </text>
  </g>
  <g>
    <rect style="fill: #ffffff" x="1057.12" y="502.352" width="92.2" height="38"/>
    <rect style="fill: none; fill-opacity:0; stroke-width: 2; stroke: #000000" x="1057.12" y="502.352" width="92.2" height="38"/>
    <text font-size="12.8" style="fill: #000000;text-anchor:middle;font-family:sans-serif;font-style:normal;font-weight:normal" x="1103.22" y="525.252">
      <tspan x="1103.22" y="525.252">"__iif_" + X</tspan>
    </text>
  </g>
  <g>
    <path style="fill: none; fill-opacity:0; stroke-width: 2; stroke: #000000" d="M 524.752 491.352 C 619.232,491.352 579.706,525.352 664.448,525.352"/>
    <polygon style="fill: #000000" points="671.948,525.352 661.948,530.352 664.448,525.352 661.948,520.352 "/>
    <polygon style="fill: none; fill-opacity:0; stroke-width: 2; stroke: #000000" points="671.948,525.352 661.948,530.352 664.448,525.352 661.948,520.352 "/>
  </g>
  <g>
    <path style="fill: none; fill-opacity:0; stroke-width: 2; stroke: #000000" d="M 503.008 574.828 C 597.48,574.828 579.714,541.352 664.448,541.352"/>
    <polygon style="fill: #000000" points="671.948,541.352 661.948,546.352 664.448,541.352 661.948,536.352 "/>
    <polygon style="fill: none; fill-opacity:0; stroke-width: 2; stroke: #000000" points="671.948,541.352 661.948,546.352 664.448,541.352 661.948,536.352 "/>
  </g>
  <g>
    <path style="fill: none; fill-opacity:0; stroke-width: 2; stroke: #000000" d="M 861.284 561.352 C 950.84,561.352 967.56,521.352 1047.38,521.352"/>
    <polygon style="fill: #000000" points="1054.88,521.352 1044.88,526.352 1047.38,521.352 1044.88,516.352 "/>
    <polygon style="fill: none; fill-opacity:0; stroke-width: 2; stroke: #000000" points="1054.88,521.352 1044.88,526.352 1047.38,521.352 1044.88,516.352 "/>
  </g>
  <g>
    <polygon style="fill: #ffffff" points="437.195,721.782 530.618,721.782 516.06,761.782 422.636,761.782 "/>
    <polygon style="fill: none; fill-opacity:0; stroke-width: 2; stroke: #000000" points="437.195,721.782 530.618,721.782 516.06,761.782 422.636,761.782 "/>
    <text font-size="12.8" style="fill: #000000;text-anchor:middle;font-family:sans-serif;font-style:normal;font-weight:normal" x="476.627" y="745.682">
      <tspan x="476.627" y="745.682">falseValue</tspan>
    </text>
  </g>
  <g>
    <polygon style="fill: #ffffff" points="434.497,638.306 523.72,638.306 509.162,678.306 419.938,678.306 "/>
    <polygon style="fill: none; fill-opacity:0; stroke-width: 2; stroke: #000000" points="434.497,638.306 523.72,638.306 509.162,678.306 419.938,678.306 "/>
    <text font-size="12.8" style="fill: #000000;text-anchor:middle;font-family:sans-serif;font-style:normal;font-weight:normal" x="471.829" y="662.206">
      <tspan x="471.829" y="662.206">trueValue</tspan>
    </text>
  </g>
  <g>
    <polygon style="fill: #ffffff" points="1063.78,664.204 1157.21,664.204 1142.65,704.204 1049.22,704.204 "/>
    <polygon style="fill: none; fill-opacity:0; stroke-width: 2; stroke: #000000" points="1063.78,664.204 1157.21,664.204 1142.65,704.204 1049.22,704.204 "/>
    <text font-size="12.8" style="fill: #000000;text-anchor:middle;font-family:sans-serif;font-style:normal;font-weight:normal" x="1103.22" y="688.104">
      <tspan x="1103.22" y="688.104">falseValue</tspan>
    </text>
  </g>
  <g>
    <polygon style="fill: #ffffff" points="1065.88,582.278 1155.11,582.278 1140.55,622.278 1051.32,622.278 "/>
    <polygon style="fill: none; fill-opacity:0; stroke-width: 2; stroke: #000000" points="1065.88,582.278 1155.11,582.278 1140.55,622.278 1051.32,622.278 "/>
    <text font-size="12.8" style="fill: #000000;text-anchor:middle;font-family:sans-serif;font-style:normal;font-weight:normal" x="1103.22" y="606.178">
      <tspan x="1103.22" y="606.178">trueValue</tspan>
    </text>
  </g>
  <g>
    <path style="fill: none; fill-opacity:0; stroke-width: 2; stroke: #000000" d="M 523.338 741.782 C 718.274,741.782 861.568,684.204 1046.77,684.204"/>
    <polygon style="fill: #000000" points="1054.27,684.204 1044.27,689.204 1046.77,684.204 1044.27,679.204 "/>
    <polygon style="fill: none; fill-opacity:0; stroke-width: 2; stroke: #000000" points="1054.27,684.204 1044.27,689.204 1046.77,684.204 1044.27,679.204 "/>
  </g>
  <g>
    <path style="fill: none; fill-opacity:0; stroke-width: 2; stroke: #000000" d="M 516.44 658.306 C 713.666,658.306 861.378,602.278 1048.87,602.278"/>
    <polygon style="fill: #000000" points="1056.37,602.278 1046.37,607.278 1048.87,602.278 1046.37,597.278 "/>
    <polygon style="fill: none; fill-opacity:0; stroke-width: 2; stroke: #000000" points="1056.37,602.278 1046.37,607.278 1048.87,602.278 1046.37,597.278 "/>
  </g>
</svg>
